*MODEL INPUT FILE            N    63     1     1   999     0
*FILES              
MODEL          MZCER046
FILEX          H181scn1.SNX C:\home\camdt\wdr\\                                                             
FILEA          H181scn1.SNA C:\home\camdt\wdr\\                                                             
FILET          H181scn1.SNT C:\home\camdt\wdr\\                                                             
SPECIES        MZCER046.SPE                                                                                 
ECOTYPE        MZCER046.ECO                                                                                 
CULTIVAR       MZCER046.CUL                                                                                 
PESTS          MZCER046.PST C:\DSSAT46\PEST\                                                                
SOILS          SOIL.SOL                                                                                     
WEATHER        ALLE1701.WTH                                                                                 
OUTPUT         OVERVIEW
*SIMULATION CONTROL 
                  31     1     S 1988151  2150 RYL, 1984-85 RAINFED MAI 
                   Y     Y     N     N     N     N     N     Y     M
                   M     M     E     R     S     C     R     1     G     S     2     D
                   R     N     N     N     M
                   N     Y     Y     1     Y     N     Y     Y     N     N     Y     N     N
!AUTOMATIC MANAGEM  
               1984001 1984059   50.  100.   30.   40.   10.
                 30.   50.  100. GS000 IR001  10.0 0.800
                 30.   50.   25. FE001 GS000
                100.     1   20.
                     0 2000289  100.    0.
*EXP.DETAILS        
  1H181scn1 SN REGION IV-B, SABLAYAN, OCC MINDORO, PHILIPPINES             
*TREATMENTS         
  1 1 0 0 ERiMA DCC1               
*CULTIVARS          
   MZ PC0001 2500-2600 GDD   
*FIELDS             
   ALLE0001 ALLE1701   0.0  -99.   -99  -99. 100.0   -99 L      120. MSKB890006
         -99.00000       -99.00000    -99.00               1.0  100.   1.0 -99.0   -99   -99
*INITIAL CONDITIONS 
   MZ    1988151   100     0  1.00  1.00   0.0     0  0.00  0.00  100.    0.
      5. 0.176  1.50  14.0
     15. 0.176  1.50  14.0
     22. 0.176  1.50  14.0
     31. 0.176  1.50  5.00
     41. 0.204  1.50  5.00
     51. 0.205  1.50  5.00
     61. 0.176  1.50  5.00
     75. 0.270  1.50   0.0
     89. 0.162  1.50   0.0
    102. 0.162  1.50   0.0
    120. 0.162  1.50   0.0
    140. 0.162 0.010 0.010
    160. 0.162 0.010 0.010
    180. 0.162 0.010 0.010
    200. 0.162 0.010 0.010
*PLANTING DETAILS   
   1988181     -99  11.0  11.0     S     R   75.  -99.   2.5  -99.  -99. -99.0 -99.0 -99.0
*IRRIGATION         
   1.000    0.    0.    0. GS000 IR001   0.0
*FERTILIZERS        
*RESIDUES           
*CHEMICALS          
*TILLAGE            
*ENVIRONMENT        
*HARVEST            
*SOIL               
 MSKB890006  IBSNAT      L      120. KALAMAZOO LOAM                                    
 Kalamazoo   MI, U.S.A.   41.700 -85.500 Typic Hapludalf                                   
 10YR   0.13   9.0  0.15   80.  1.00  1.00 SA001 SA001 SA001 -99  
    5.       0.137 0.270 0.380 1.000  -99.  1.60 1.100  19.0  38.0 -99.0 0.130  6.50-99.00 10.00-99.00
   15.       0.137 0.270 0.380 1.000  -99.  1.60 1.000  19.0  38.0 -99.0 0.130  6.50-99.00 10.00-99.00
   22.       0.137 0.270 0.380 1.000  -99.  1.60 0.900  19.0  38.0 -99.0 0.130  6.50-99.00 10.00-99.00
   31.       0.137 0.270 0.380 1.000  -99.  1.60 0.700  22.0  47.0 -99.0 0.130  6.50-99.00 10.00-99.00
   41.       0.165 0.298 0.343 1.000  -99.  1.60 0.300  23.0  44.0 -99.0 0.050  6.50-99.00 10.00-99.00
   51.       0.165 0.300 0.410 1.000  -99.  1.60 0.220  25.0  19.0 -99.0 0.040  6.00-99.00 10.00-99.00
   61.       0.137 0.270 0.380 1.000  -99.  1.60 0.100  21.0  17.0 -99.0 0.040  6.00-99.00 10.00-99.00
   75.       0.137 0.270 0.380 0.800  -99.  1.60 0.050  19.0  12.0 -99.0 0.020  6.00-99.00 10.00-99.00
   89.       0.060 0.162 0.270 0.600  -99.  1.60 0.020   7.0   4.0 -99.0 0.010  6.00-99.00  3.00-99.00
  102.       0.060 0.162 0.270 0.400  -99.  1.60 0.020   7.0   4.0 -99.0 0.010  6.00-99.00  3.00-99.00
  120.       0.060 0.162 0.270 0.200  -99.  1.60 0.020   7.0   4.0 -99.0 0.010  6.00-99.00  3.00-99.00
  140.       0.060 0.162 0.270 0.000  -99.  1.60 0.020   7.0   4.0 -99.0 0.010  6.00-99.00  3.00-99.00
  160.       0.060 0.162 0.270 0.000  -99.  1.60 0.020   7.0   4.0 -99.0 0.010  6.00-99.00  3.00-99.00
  180.       0.060 0.162 0.270 0.000  -99.  1.60 0.020   7.0   4.0 -99.0 0.010  6.00-99.00  3.00-99.00
  200.       0.060 0.162 0.270 0.000  -99.  1.60 0.020   7.0   4.0 -99.0 0.010  6.00-99.00  3.00-99.00
                    
    5.-99.00 -99.0 -99.0 -99.0 -99.0 -99.0 -99.0 -99.0 -99.0 -99.0-99.00 -99.0 -99.0 -99.0 -99.0 -99.0  -99.
   15.-99.00 -99.0 -99.0 -99.0 -99.0 -99.0 -99.0 -99.0 -99.0 -99.0-99.00 -99.0 -99.0 -99.0 -99.0 -99.0  -99.
   22.-99.00 -99.0 -99.0 -99.0 -99.0 -99.0 -99.0 -99.0 -99.0 -99.0-99.00 -99.0 -99.0 -99.0 -99.0 -99.0  -99.
   31.-99.00 -99.0 -99.0 -99.0 -99.0 -99.0 -99.0 -99.0 -99.0 -99.0-99.00 -99.0 -99.0 -99.0 -99.0 -99.0  -99.
   41.-99.00 -99.0 -99.0 -99.0 -99.0 -99.0 -99.0 -99.0 -99.0 -99.0-99.00 -99.0 -99.0 -99.0 -99.0 -99.0  -99.
   51.-99.00 -99.0 -99.0 -99.0 -99.0 -99.0 -99.0 -99.0 -99.0 -99.0-99.00 -99.0 -99.0 -99.0 -99.0 -99.0  -99.
   61.-99.00 -99.0 -99.0 -99.0 -99.0 -99.0 -99.0 -99.0 -99.0 -99.0-99.00 -99.0 -99.0 -99.0 -99.0 -99.0  -99.
   75.-99.00 -99.0 -99.0 -99.0 -99.0 -99.0 -99.0 -99.0 -99.0 -99.0-99.00 -99.0 -99.0 -99.0 -99.0 -99.0  -99.
   89.-99.00 -99.0 -99.0 -99.0 -99.0 -99.0 -99.0 -99.0 -99.0 -99.0-99.00 -99.0 -99.0 -99.0 -99.0 -99.0  -99.
  102.-99.00 -99.0 -99.0 -99.0 -99.0 -99.0 -99.0 -99.0 -99.0 -99.0-99.00 -99.0 -99.0 -99.0 -99.0 -99.0  -99.
  120.-99.00 -99.0 -99.0 -99.0 -99.0 -99.0 -99.0 -99.0 -99.0 -99.0-99.00 -99.0 -99.0 -99.0 -99.0 -99.0  -99.
  140.-99.00 -99.0 -99.0 -99.0 -99.0 -99.0 -99.0 -99.0 -99.0 -99.0-99.00 -99.0 -99.0 -99.0 -99.0 -99.0  -99.
  160.-99.00 -99.0 -99.0 -99.0 -99.0 -99.0 -99.0 -99.0 -99.0 -99.0-99.00 -99.0 -99.0 -99.0 -99.0 -99.0  -99.
  180.-99.00 -99.0 -99.0 -99.0 -99.0 -99.0 -99.0 -99.0 -99.0 -99.0-99.00 -99.0 -99.0 -99.0 -99.0 -99.0  -99.
  200.-99.00 -99.0 -99.0 -99.0 -99.0 -99.0 -99.0 -99.0 -99.0 -99.0-99.00 -99.0 -99.0 -99.0 -99.0 -99.0  -99.
                    
    5.-99.00-99.00-99.00-99.00
   15.-99.00-99.00-99.00-99.00
   22.-99.00-99.00-99.00-99.00
   31.-99.00-99.00-99.00-99.00
   41.-99.00-99.00-99.00-99.00
   51.-99.00-99.00-99.00-99.00
   61.-99.00-99.00-99.00-99.00
   75.-99.00-99.00-99.00-99.00
   89.-99.00-99.00-99.00-99.00
  102.-99.00-99.00-99.00-99.00
  120.-99.00-99.00-99.00-99.00
  140.-99.00-99.00-99.00-99.00
  160.-99.00-99.00-99.00-99.00
  180.-99.00-99.00-99.00-99.00
  200.-99.00-99.00-99.00-99.00
*CULTIVAR           
PC0001 2500-2600 GDD    IB0001  137.5 1.414 749.0 777.4 11.37 32.33
