Directory:  C:\camdtpro\env-camdtpro\inputs
Station_name: ALLE 
LAT: 42.567 
LONG: -85.633 
ELEV: 232 
TAV: 8.7 
AMP: 26.0 
First_Plt_Date: 2017121 
Last_Plt_Date: 2017181 
Harvest_Date: 2017361 
frst_start_Date: 2017121 
Planting_window: [5, 6] 
SCF_window: [5, 6, 7] 
Cultivar: PC0001 
Planting_density: 11.0 
Soil_type: MSKB890006 
Irrigation_A(1)_N(0): 0 
Fertilizer_Y(1)_N(0): 0 
