,RAIN-Jun-W1,RAIN-Jun-W2,RAIN-Jun-W3,RAIN-Jun-W4,RAIN-Jul-W1,RAIN-Jul-W2,RAIN-Jul-W3,RAIN-Jul-W4,RAIN-Aug-W1,RAIN-Aug-W2,RAIN-Aug-W3,RAIN-Aug-W4,RAIN-Sep-W1,RAIN-Sep-W2,RAIN-Sep-W3,RAIN-Sep-W4
YEAR1,0.024746907,0.005624297,0.012373453,0.030933633,0.016872891,0.03712036,0.20359955,0.102924634,0.023622047,0.133295838,0.083239595,0.158042745,0.114735658,0.177165354,0.035433071,0.269966254
YEAR2,0.104049494,0.065241845,0.071991001,0.154105737,0.014060742,0.075365579,0.102362205,0.09167604,0.053430821,0.339145107,0.066929134,0.156355456,0.068053993,0.266591676,0.150168729,0.019685039
YEAR3,0.051743532,0.098425197,0.065804274,0.239595051,0.05568054,0.023622047,0.1856018,0.156917885,0.094488189,0.104611924,0.086614173,0.269966254,0.025309336,0.077052868,0.09167604,0.265466817
YEAR4,0.044431946,0.192913386,0.041619798,0.070303712,0.215410574,0.150731159,0.021372328,0.16704162,0.161417323,0.223284589,0.006186727,0.176040495,0.015185602,0.044994376,0.194038245,0.091113611
YEAR5,0.077052868,0.014060742,0.146231721,0.027559055,0.038807649,0.134420697,0.383577053,0.121484814,0.162542182,0.116985377,0.038807649,0.024184477,0.242407199,0.03655793,0.274465692,0.142294713
YEAR6,0.195163105,0.24128234,0.304274466,0.102362205,0.058492688,0.132733408,0.144544432,0.117547807,0.089426322,0.266591676,0.062992126,0.124859393,0.269403825,0.157480315,0.178290214,0.283464567
YEAR7,0.03655793,0.144544432,0.061304837,0.63048369,0.201349831,0.169291339,0.113048369,0.138920135,0.060742407,0.214285714,0.308773903,0.07480315,0.132733408,0.005061867,0.028121485,0.020809899
YEAR8,0.121484814,0.025309336,0.00056243,0.179977503,0.137795276,0.021934758,0.101799775,0.197412823,0.200787402,0.133295838,0.159167604,0.101237345,0.028121485,0.01856018,0.045556805,0.114735658
YEAR9,0.182789651,0.186726659,0.410011249,0.050056243,0.021372328,0.020247469,0.065804274,0.010123735,0.145669291,0.027559055,0.028121485,0.151856018,0.021372328,4.42E-17,0.122047244,0.040494938
YEAR10,0.061304837,0.017435321,0.493813273,0.039932508,0.079302587,0.098425197,0.078740157,0.155793026,0.008998875,0.043307087,0.278965129,0.114173228,0.070866142,0.016872891,0.102362205,0.412823397
YEAR11,0.008998875,0.144544432,0.05511811,0.104049494,0.087176603,0.078177728,0.032058493,0.160854893,0.008436445,0.319460067,0.021372328,0.047806524,0.124859393,0.122609674,0.010123735,0.144544432
YEAR12,0.068616423,0.202474691,0.002812148,0.255343082,0.152980877,0.137795276,0.083802025,0.11136108,0.021372328,0.137795276,0.082114736,0.054555681,0.107424072,0.007874016,0.034308211,0.023622047
YEAR13,0.101237345,0.232283465,0.106861642,0.115298088,0.151856018,0.155793026,0.024184477,0.005061867,0.321709786,0.173228346,0.032620922,0.154668166,0.043307087,0.042182227,0.279527559,0.095050619
YEAR14,0.178852643,0.138357705,0.179977503,0.003937008,0.020809899,0.012935883,0.024746907,0.219910011,0.021372328,0.051743532,0.136107987,0.291338583,0.107424072,0.03712036,0.20416198,0.139482565
YEAR15,0.155793026,0.076490439,0.068616423,0.038807649,0.003374578,0.122609674,0.01856018,0.082114736,0.221034871,0.062429696,0.143982002,0.237907762,0.006186727,0.015748031,0.002812148,0.113048369
YEAR16,0.035995501,0.068616423,0.015185602,0.100674916,0.051181102,0.187851519,0.01856018,0.142857143,0.086051744,0.105736783,0.068616423,0.01799775,0.088863892,0.047244094,0.012373453,0.05568054
YEAR17,0.060179978,0.278965129,0.03768279,0.154668166,0.159730034,0.071991001,0.075365579,0.087176603,0.025309336,0.126546682,0.05624297,0.051743532,0.275590551,0.002812148,0.023622047,0.042744657
YEAR18,0.087739033,0.196287964,0.007874016,0.029808774,0.112485939,0.028683915,0.159730034,0.271653543,0.007311586,0.025871766,0.095613048,0.084926884,0.039370079,1.88E-17,0.012373453,0.142294713
YEAR19,0.13048369,0.005061867,0.078177728,0.020247469,0.030933633,0.163667042,0.199100112,0.080427447,0.205849269,0.095613048,0.003937008,0.05568054,0.228908886,0.027559055,0.24128234,0.061304837
YEAR20,0.14735658,0.008436445,0.066366704,0.045556805,0.071428571,0.019685039,0.091113611,0.104611924,0.002812148,0.216535433,0.053993251,0.618110236,0.102924634,0.01912261,0.141169854,0.002812148
YEAR21,0.14904387,0.474128234,0.014060742,0.078177728,0.321709786,0.11023622,0.094488189,0.096175478,0.024184477,0.084926884,0.010123735,0.024184477,0.039932508,0.386389201,0.204724409,0.656917885
YEAR22,0.042744657,0.14735658,0.458380202,0.027559055,0.028683915,0.062429696,0.084364454,0.060742407,0.029808774,0.362767154,0.038807649,0.170978628,0.235658043,0.00056243,0.005061867,0.012373453
YEAR23,0.313835771,0.104611924,0.309336333,0.285714286,0.001124859,0.190101237,0.159730034,0.33295838,0.020247469,0.080989876,0.089988751,0.09167604,0.002812148,0.198537683,0.073115861,0.200224972
YEAR24,0,0.089426322,0.205286839,0.124859393,0.082114736,0.101799775,0.023059618,0.061867267,0.570303712,0.183352081,0.226659168,0.119797525,0.026996625,0.049493813,0.027559055,0.083802025
YEAR25,0.121484814,0.001124859,0.109673791,0.010123735,0.016310461,0.014623172,0.07367829,0.14735658,0.197975253,0.043869516,0.272778403,0.060179978,0.048368954,0.068616423,0.071428571,0.076490439
YEAR26,0.062992126,0.197975253,0.120359955,0.215973003,0.083802025,0.064116985,0.044994376,0.1287964,0.121484814,0.100674916,0.114173228,0.066366704,0.095050619,0.002249719,0.142857143,0.105174353
YEAR27,0.070866142,0.18447694,0.279527559,0.194600675,0.136670416,0.263779528,0.05511811,0.058492688,0.029808774,0.043869516,0.080989876,0.172665917,0.125984252,0.188413948,0.164229471,0.070866142
YEAR28,0.026996625,0.365579303,0.11079865,0.212035996,0.033745782,0.098425197,0.321709786,0.001687289,0.090551181,0.029808774,0.116985377,0.16591676,0.050056243,0.072553431,0.11192351,0.151293588
YEAR29,0.068053993,0.010123735,0.118672666,0.070866142,0.052305962,0.112485939,0.062992126,0.245219348,0.131608549,0.00056243,0.584926884,0.242407199,0.155230596,0.030371204,0.202474691,0.089426322
YEAR30,0.023622047,0.082114736,0.216535433,0.14904387,0.12992126,0.218222722,0.03655793,0.043869516,0.011248594,0.11192351,0.083239595,0.102924634,0.014623172,0.03712036,0.044431946,0.024746907
