*RUN-TIME ERRORS OUTPUT FILE



*DSSAT Cropping System Model Ver. 4.6.1.000 -release      DEC 15, 2019; 02:06:59
                                                                                
*RUN   1        : ERiMA DCC1                         H121aaaa    1              
                                                                                
 EXPERIMENT     : H121aaaa SN REGION IV-B, SABLAYAN, OCC MINDORO, PHILIPPINES   
 DATA PATH      : c:\Users\kpodo\Documents\GitHub\camdtpro\env-camdtpro\inputs\\
 TREATMENT  1   : ERiMA DCC1                                                    
  
H121aaaa.SNX, Trt    1
 
 Invalid format in file.                                                        
  
File: H121aaaa.SNX   Line:    67   Error key: IPSIM 

Additional information may be available in WARNING.OUT file.
